{
	"data": [
		{
			"id": "1000",
			"code": "f230fh0g3",
			"name": "Chocolate Cake",
			"description": "Product Description",
			"price": 650,
			"category": "Cakes",
			"quantity": 5,
			"inventoryStatus": "INSTOCK"
		},
		{
			"id": "1001",
			"code": "nvklal433",
			"name": "Banana Cake",
			"description": "Product Description",
			"price": 500,
			"category": "Cakes",
			"quantity": 4,
			"inventoryStatus": "INSTOCK"
		},
		{
			"id": "1002",
			"code": "zz21cz3c1",
			"name": "Indulgence Brownie",
			"description": "Product Description",
			"price": 79,
			"category": "Desserts",
			"quantity": 1,
			"inventoryStatus": "LOWSTOCK"
		},
		{
			"id": "1003",
			"code": "244wgerg2",
			"name": "Vanilla CupCakes - 100gm",
			"description": "Product Description",
			"price": 120,
			"category": "Desserts",
			"quantity": 5,
			"inventoryStatus": "INSTOCK"
		},
		{
			"id": "1004",
			"code": "h456wer53",
			"name": "Thin Crust Italian Pizza",
			"description": "Thin Crust Italian Pizza",
			"price": 500,
			"category": "Pizza",
			"quantity": 73,
			"inventoryStatus": "INSTOCK"
		},
		{
			"id": "1005",
			"code": "av2231fwg",
			"name": "Farm Mix Pizza",
			"description": "Product Description",
			"price": 620,
			"category": "Pizza",
			"quantity": 0,
			"inventoryStatus": "OUTOFSTOCK"
		},
		{
			"id": "1006",
			"code": "bib36pfvm",
			"name": "Pepsi",
			"description": "Product Description",
			"price": 80,
			"category": "Sides & Beverages",
			"quantity": 5,
			"inventoryStatus": "LOWSTOCK"
		},
		{
			"id": "1007",
			"code": "mbvjkgip5",
			"name": "French Fries",
			"description": "Product Description",
			"price": 70,
			"category": "Sides & Beverages",
			"quantity": 23,
			"inventoryStatus": "INSTOCK"
		},
		{
			"id": "1008",
			"code": "vbb124btr",
			"name": "Potato Wedges",
			"description": "Product Description",
			"price": 99,
			"category": "Sides & Beverages",
			"quantity": 2,
			"inventoryStatus": "LOWSTOCK"
		},
		{
			"id": "1009",
			"code": "cm230f032",
			"name": "Black Forest",
			"description": "Product Description",
			"price": 800,
			"category": "Cakes",
			"quantity": 5,
			"inventoryStatus": "INSTOCK"
		},
		{
			"id": "1010",
			"code": "plb34234v",
			"name": "Almond Cheese Cake",
			"description": "Product Description",
			"price": 324,
			"category": "Cakes",
			"quantity": 0,
			"inventoryStatus": "OUTOFSTOCK"
		},
		{
			"id": "1011",
			"code": "4920nnc2d",
			"name": "OliveCapsium Fest",
			"description": "Product Description",
			"price": 389,
			"category": "Pizza",
			"quantity": 13,
			"inventoryStatus": "INSTOCK"
		},
		{
			"id": "1012",
			"code": "250vm23cc",
			"name": "Chocolate Cookies-3",
			"description": "Product Description",
			"price": 120,
			"category": "Desserts",
			"quantity": 74,
			"inventoryStatus": "INSTOCK"
		},
		{
			"id": "1013",
			"code": "fldsmn31b",
			"name": "Sizzling Brownie",
			"description": "Product Description",
			"price": 248,
			"category": "Desserts",
			"quantity": 0,
			"inventoryStatus": "OUTOFSTOCK"
		},
		{
			"id": "1014",
			"code": "waas1x2as",
			"name": "Chicken Cheese Pizza",
			"description": "Product Description",
			"price": 875,
			"category": "Pizza",
			"quantity": 8,
			"inventoryStatus": "LOWSTOCK"
		},
		{
			"id": "1015",
			"code": "vb34btbg5",
			"name": "Choco Lava",
			"description": "Product Description",
			"price": 60,
			"category": "Desserts",
			"quantity": 34,
			"inventoryStatus": "INSTOCK"
		},
		{
			"id": "1016",
			"code": "k8l6j58jl",
			"name": "Lime Soda",
			"description": "Product Description",
			"price": 50,
			"category": "Sides & Beverages",
			"quantity": 12,
			"inventoryStatus": "INSTOCK"
		},
		{
			"id": "1017",
			"code": "v435nn85n",
			"name": "Mini CupCakes - Assorted Box of 3",
			"description": "Product Description",
			"price": 50,
			"category": "Desserts",
			"quantity": 42,
			"inventoryStatus": "INSTOCK"
		},
		{
			"id": "1018",
			"code": "09zx9c0zc",
			"name": "Cheese Cake",
			"description": "Product Description",
			"price": 560,
			"category": "Cakes",
			"quantity": 4,
			"inventoryStatus": "INSTOCK"
		},
		{
			"id": "1019",
			"code": "mnb5mb2m5",
			"name": "Red Bull",
			"description": "Product Description",
			"price": 179,
			"category": "Sides & Beverages",
			"quantity": 63,
			"inventoryStatus": "INSTOCK"
		},
		{
			"id": "1020",
			"code": "r23fwf2w3",
			"name": "RollOver Chocolate Cake",
			"description": "Product Description",
			"price": 1100,
			"category": "Cakes",
			"quantity": 0,
			"inventoryStatus": "OUTOFSTOCK"
		},
		{
			"id": "1021",
			"code": "pxpzczo23",
			"name": "Vanilla Cake",
			"description": "Product Description",
			"price": 450,
			"category": "Sides & Beverages",
			"quantity": 6,
			"inventoryStatus": "LOWSTOCK"
		},
		{
			"id": "1022",
			"code": "2c42cb5cb",
			"name": "Sponge Cake",
			"description": "Product Description",
			"price": 450,
			"category": "Cakes",
			"quantity": 4,
			"inventoryStatus": "INSTOCK"
		},
		{
			"id": "1023",
			"code": "5k43kkk23",
			"name": "Donuts",
			"description": "Product Description",
			"price": 50,
			"category": "Desserts",
			"quantity": 2,
			"inventoryStatus": "LOWSTOCK"
		},
		{
			"id": "1024",
			"code": "lm2tny2k4",
			"name": "Muffins-Pack of six",
			"description": "Product Description",
			"price": 100,
			"category": "Desserts",
			"quantity": 1,
			"inventoryStatus": "INSTOCK"
		},
		{
			"id": "1025",
			"code": "nbm5mv45n",
			"name": "Eggless Brownie",
			"description": "Product Description",
			"price": 200,
			"category": "Desserts",
			"quantity": 12,
			"inventoryStatus": "INSTOCK"
		},
		{
			"id": "1026",
			"code": "zx23zc42c",
			"name": "Gulab Jamun",
			"description": "Product Description",
			"price": 20,
			"category": "Desserts",
			"quantity": 3,
			"inventoryStatus": "LOWSTOCK"
		},
		{
			"id": "1027",
			"code": "acvx872gc",
			"name": "Cheese Burst Pizza",
			"description": "Product Description",
			"price": 189,
			"category": "Pizza",
			"quantity": 20,
			"inventoryStatus": "INSTOCK"
		},
		{
			"id": "1028",
			"code": "tx125ck42",
			"name": "Cola-a-Cola",
			"description": "Product Description",
			"price": 90,
			"category": "Sides & Beverages",
			"quantity": 15,
			"inventoryStatus": "INSTOCK"
		},
		{
			"id": "1029",
			"code": "gwuby345v",
			"name": "Smilies",
			"description": "Product Description",
			"price": 120,
			"category": "Sides & Beverages",
			"quantity": 25,
			"inventoryStatus": "INSTOCK"
		}
	]
}
